{
  "name": "GetProducts",
  "description": "Start with a blank project to design a new task automation",
  "main": "Main.xaml",
  "dependencies": {
    "UiPath.ComplexScenarios.Activities": "[1.0.2]",
    "UiPath.Excel.Activities": "[2.8.6]",
    "UiPath.Mail.Activities": "[1.8.6]",
    "UiPath.System.Activities": "[20.4.0]",
    "UiPath.UIAutomationNext.Activities": "[20.4.2]",
    "UiPath.Word.Activities": "[1.4.3]"
  },
  "webServices": [],
  "schemaVersion": "4.0",
  "studioVersion": "20.4.3.0",
  "projectVersion": "1.0.0",
  "runtimeOptions": {
    "exceptionHandlerWorkflow": "GlobalHandlerX.xaml",
    "autoDispose": false,
    "isPausable": true,
    "requiresUserInteraction": true,
    "supportsPersistence": false,
    "excludedLoggedData": [
      "Private:*",
      "*password*"
    ],
    "executionType": "Workflow"
  },
  "designOptions": {
    "projectProfile": "Business",
    "outputType": "Process",
    "libraryOptions": {
      "includeOriginalXaml": false,
      "privateWorkflows": []
    },
    "fileInfoCollection": []
  },
  "expressionLanguage": "VisualBasic"
}